1 d-1/3
PID = 1
VALID
Parton
Quark
2J+1 = 2, 2S+1 = 0, 2L+1 = 0
Q = -1/3 = -0.333333
Coloured = true

2 u+2/3
PID = 2
VALID
Parton
Quark
2J+1 = 2, 2S+1 = 0, 2L+1 = 0
Q = 2/3 = 0.666667
Coloured = true

3 s-1/3
PID = 3
VALID
Parton
Quark
2J+1 = 2, 2S+1 = 0, 2L+1 = 0
Q = -1/3 = -0.333333
Coloured = true

4 c+2/3
PID = 4
VALID
Parton
Quark
Has charm
2J+1 = 2, 2S+1 = 0, 2L+1 = 0
Q = 2/3 = 0.666667
Coloured = true

5 b-1/3
PID = 5
VALID
Parton
Quark
Has bottom
2J+1 = 2, 2S+1 = 0, 2L+1 = 0
Q = -1/3 = -0.333333
Coloured = true

6 t+2/3
PID = 6
VALID
Parton
Quark
2J+1 = 2, 2S+1 = 0, 2L+1 = 0
Q = 2/3 = 0.666667
Coloured = true

11 e-
PID = 11
VALID
Lepton
2J+1 = 2, 2S+1 = 0, 2L+1 = 0
Q = -3/3 = -1
Coloured = false

13 mu-
PID = 13
VALID
Lepton
2J+1 = 2, 2S+1 = 0, 2L+1 = 0
Q = -3/3 = -1
Coloured = false

15 tau-
PID = 15
VALID
Lepton
2J+1 = 2, 2S+1 = 0, 2L+1 = 0
Q = -3/3 = -1
Coloured = false

21 g0
PID = 21
VALID
Parton
Gluon
2J+1 = 3, 2S+1 = 0, 2L+1 = 0
Q = 0/3 = 0
Coloured = true

22 gamma0
PID = 22
VALID
Photon
2J+1 = 3, 2S+1 = 0, 2L+1 = 0
Q = 0/3 = 0
Coloured = false

23 Z0
PID = 23
VALID
2J+1 = 3, 2S+1 = 0, 2L+1 = 0
Q = 0/3 = 0
Coloured = false

24 W+
PID = 24
VALID
2J+1 = 3, 2S+1 = 0, 2L+1 = 0
Q = 3/3 = 1
Coloured = false

25 H0
PID = 25
VALID
2J+1 = 0, 2S+1 = 0, 2L+1 = 0
Q = 0/3 = 0
Coloured = false

111 pi0
PID = 111
VALID
Hadron
Meson
2J+1 = 1, 2S+1 = 0, 2L+1 = 0
Q = 0/3 = 0
Coloured = true

113 rho(770)0
PID = 113
VALID
Hadron
Meson
2J+1 = 3, 2S+1 = 1, 2L+1 = 0
Q = 0/3 = 0
Coloured = true

115 a(2)(1320)0
PID = 115
VALID
Hadron
Meson
2J+1 = 5, 2S+1 = 1, 2L+1 = 1
Q = 0/3 = 0
Coloured = true

117 rho(3)(1690)0
PID = 117
VALID
Hadron
Meson
2J+1 = 7, 2S+1 = 1, 2L+1 = 2
Q = 0/3 = 0
Coloured = true

119 a(4)(2040)0
PID = 119
VALID
Hadron
Meson
2J+1 = 9, 2S+1 = 1, 2L+1 = 3
Q = 0/3 = 0
Coloured = true

130 K(L)0
PID = 130
VALID
Hadron
Meson
2J+1 = 0, 2S+1 = 0, 2L+1 = 0
Q = 0/3 = 0
Coloured = true

211 pi+
PID = 211
VALID
Hadron
Meson
2J+1 = 1, 2S+1 = 0, 2L+1 = 0
Q = 3/3 = 1
Coloured = true

213 rho(770)+
PID = 213
VALID
Hadron
Meson
2J+1 = 3, 2S+1 = 1, 2L+1 = 0
Q = 3/3 = 1
Coloured = true

215 a(2)(1320)+
PID = 215
VALID
Hadron
Meson
2J+1 = 5, 2S+1 = 1, 2L+1 = 1
Q = 3/3 = 1
Coloured = true

217 rho(3)(1690)+
PID = 217
VALID
Hadron
Meson
2J+1 = 7, 2S+1 = 1, 2L+1 = 2
Q = 3/3 = 1
Coloured = true

219 a(4)(2040)+
PID = 219
VALID
Hadron
Meson
2J+1 = 9, 2S+1 = 1, 2L+1 = 3
Q = 3/3 = 1
Coloured = true

221 eta0
PID = 221
VALID
Hadron
Meson
2J+1 = 1, 2S+1 = 0, 2L+1 = 0
Q = 0/3 = 0
Coloured = true

223 omega(782)0
PID = 223
VALID
Hadron
Meson
2J+1 = 3, 2S+1 = 1, 2L+1 = 0
Q = 0/3 = 0
Coloured = true

225 f(2)(1270)0
PID = 225
VALID
Hadron
Meson
2J+1 = 5, 2S+1 = 1, 2L+1 = 1
Q = 0/3 = 0
Coloured = true

227 omega(3)(1670)0
PID = 227
VALID
Hadron
Meson
2J+1 = 7, 2S+1 = 1, 2L+1 = 2
Q = 0/3 = 0
Coloured = true

229 f(4)(2050)0
PID = 229
VALID
Hadron
Meson
2J+1 = 9, 2S+1 = 1, 2L+1 = 3
Q = 0/3 = 0
Coloured = true

310 K(S)0
PID = 310
VALID
Hadron
Meson
2J+1 = 0, 2S+1 = 0, 2L+1 = 0
Q = 0/3 = 0
Coloured = true

311 K0
PID = 311
VALID
Hadron
Meson
2J+1 = 1, 2S+1 = 0, 2L+1 = 0
Q = 0/3 = 0
Coloured = true

313 K*(892)0
PID = 313
VALID
Hadron
Meson
2J+1 = 3, 2S+1 = 1, 2L+1 = 0
Q = 0/3 = 0
Coloured = true

315 K(2)*(1430)0
PID = 315
VALID
Hadron
Meson
2J+1 = 5, 2S+1 = 1, 2L+1 = 1
Q = 0/3 = 0
Coloured = true

317 K(3)*(1780)0
PID = 317
VALID
Hadron
Meson
2J+1 = 7, 2S+1 = 1, 2L+1 = 2
Q = 0/3 = 0
Coloured = true

319 K(4)*(2045)0
PID = 319
VALID
Hadron
Meson
2J+1 = 9, 2S+1 = 1, 2L+1 = 3
Q = 0/3 = 0
Coloured = true

321 K+
PID = 321
VALID
Hadron
Meson
2J+1 = 1, 2S+1 = 0, 2L+1 = 0
Q = 3/3 = 1
Coloured = true

323 K*(892)+
PID = 323
VALID
Hadron
Meson
2J+1 = 3, 2S+1 = 1, 2L+1 = 0
Q = 3/3 = 1
Coloured = true

325 K(2)*(1430)+
PID = 325
VALID
Hadron
Meson
2J+1 = 5, 2S+1 = 1, 2L+1 = 1
Q = 3/3 = 1
Coloured = true

327 K(3)*(1780)+
PID = 327
VALID
Hadron
Meson
2J+1 = 7, 2S+1 = 1, 2L+1 = 2
Q = 3/3 = 1
Coloured = true

329 K(4)*(2045)+
PID = 329
VALID
Hadron
Meson
2J+1 = 9, 2S+1 = 1, 2L+1 = 3
Q = 3/3 = 1
Coloured = true

331 eta'(958)0
PID = 331
VALID
Hadron
Meson
2J+1 = 1, 2S+1 = 0, 2L+1 = 0
Q = 0/3 = 0
Coloured = true

333 phi(1020)0
PID = 333
VALID
Hadron
Meson
2J+1 = 3, 2S+1 = 1, 2L+1 = 0
Q = 0/3 = 0
Coloured = true

335 f(2)'(1525)0
PID = 335
VALID
Hadron
Meson
2J+1 = 5, 2S+1 = 1, 2L+1 = 1
Q = 0/3 = 0
Coloured = true

337 phi(3)(1850)0
PID = 337
VALID
Hadron
Meson
2J+1 = 7, 2S+1 = 1, 2L+1 = 2
Q = 0/3 = 0
Coloured = true

411 D+
PID = 411
VALID
Hadron
Meson
Has charm
2J+1 = 1, 2S+1 = 0, 2L+1 = 0
Q = 3/3 = 1
Coloured = true

413 D*(2010)+
PID = 413
VALID
Hadron
Meson
Has charm
2J+1 = 3, 2S+1 = 1, 2L+1 = 0
Q = 3/3 = 1
Coloured = true

415 D(2)*(2460)+
PID = 415
VALID
Hadron
Meson
Has charm
2J+1 = 5, 2S+1 = 1, 2L+1 = 1
Q = 3/3 = 1
Coloured = true

421 D0
PID = 421
VALID
Hadron
Meson
Has charm
2J+1 = 1, 2S+1 = 0, 2L+1 = 0
Q = 0/3 = 0
Coloured = true

423 D*(2007)0
PID = 423
VALID
Hadron
Meson
Has charm
2J+1 = 3, 2S+1 = 1, 2L+1 = 0
Q = 0/3 = 0
Coloured = true

425 D(2)*(2460)0
PID = 425
VALID
Hadron
Meson
Has charm
2J+1 = 5, 2S+1 = 1, 2L+1 = 1
Q = 0/3 = 0
Coloured = true

431 D(s)+
PID = 431
VALID
Hadron
Meson
Has charm
2J+1 = 1, 2S+1 = 0, 2L+1 = 0
Q = 3/3 = 1
Coloured = true

433 D(s)*+
PID = 433
VALID
Hadron
Meson
Has charm
2J+1 = 3, 2S+1 = 1, 2L+1 = 0
Q = 3/3 = 1
Coloured = true

435 D(s2)*(2573)+
PID = 435
VALID
Hadron
Meson
Has charm
2J+1 = 5, 2S+1 = 1, 2L+1 = 1
Q = 3/3 = 1
Coloured = true

441 eta(c)(1S)0
PID = 441
VALID
Hadron
Meson
Has charm
2J+1 = 1, 2S+1 = 0, 2L+1 = 0
Q = 0/3 = 0
Coloured = true

443 J/psi(1S)0
PID = 443
VALID
Hadron
Meson
Has charm
2J+1 = 3, 2S+1 = 1, 2L+1 = 0
Q = 0/3 = 0
Coloured = true

445 chi(c2)(1P)0
PID = 445
VALID
Hadron
Meson
Has charm
2J+1 = 5, 2S+1 = 1, 2L+1 = 1
Q = 0/3 = 0
Coloured = true

511 B0
PID = 511
VALID
Hadron
Meson
Has bottom
2J+1 = 1, 2S+1 = 0, 2L+1 = 0
Q = 0/3 = 0
Coloured = true

513 B*0
PID = 513
VALID
Hadron
Meson
Has bottom
2J+1 = 3, 2S+1 = 1, 2L+1 = 0
Q = 0/3 = 0
Coloured = true

515 B(2)*(5747)0
PID = 515
VALID
Hadron
Meson
Has bottom
2J+1 = 5, 2S+1 = 1, 2L+1 = 1
Q = 0/3 = 0
Coloured = true

521 B+
PID = 521
VALID
Hadron
Meson
Has bottom
2J+1 = 1, 2S+1 = 0, 2L+1 = 0
Q = 3/3 = 1
Coloured = true

523 B*+
PID = 523
VALID
Hadron
Meson
Has bottom
2J+1 = 3, 2S+1 = 1, 2L+1 = 0
Q = 3/3 = 1
Coloured = true

525 B(2)*(5747)+
PID = 525
VALID
Hadron
Meson
Has bottom
2J+1 = 5, 2S+1 = 1, 2L+1 = 1
Q = 3/3 = 1
Coloured = true

531 B(s)0
PID = 531
VALID
Hadron
Meson
Has bottom
2J+1 = 1, 2S+1 = 0, 2L+1 = 0
Q = 0/3 = 0
Coloured = true

533 B(s)*0
PID = 533
VALID
Hadron
Meson
Has bottom
2J+1 = 3, 2S+1 = 1, 2L+1 = 0
Q = 0/3 = 0
Coloured = true

535 B(s2)*(5840)0
PID = 535
VALID
Hadron
Meson
Has bottom
2J+1 = 5, 2S+1 = 1, 2L+1 = 1
Q = 0/3 = 0
Coloured = true

541 B(c)+
PID = 541
VALID
Hadron
Meson
Has charm
Has bottom
2J+1 = 1, 2S+1 = 0, 2L+1 = 0
Q = 3/3 = 1
Coloured = true

553 Upsilon(1S)0
PID = 553
VALID
Hadron
Meson
Has bottom
2J+1 = 3, 2S+1 = 1, 2L+1 = 0
Q = 0/3 = 0
Coloured = true

555 chi(b2)(1P)0
PID = 555
VALID
Hadron
Meson
Has bottom
2J+1 = 5, 2S+1 = 1, 2L+1 = 1
Q = 0/3 = 0
Coloured = true

1112 Delta(1620)-
PID = 1112
VALID
Hadron
Baryon
2J+1 = 2, 2S+1 = 0, 2L+1 = 0
Q = -3/3 = -1
Coloured = true

1114 Delta(1232)-
PID = 1114
VALID
Hadron
Baryon
2J+1 = 4, 2S+1 = 0, 2L+1 = 0
Q = -3/3 = -1
Coloured = true

1116 Delta(1905)-
PID = 1116
VALID
Hadron
Baryon
2J+1 = 6, 2S+1 = 0, 2L+1 = 0
Q = -3/3 = -1
Coloured = true

1118 Delta(1950)-
PID = 1118
VALID
Hadron
Baryon
2J+1 = 8, 2S+1 = 0, 2L+1 = 0
Q = -3/3 = -1
Coloured = true

1212 Delta(1620)0
PID = 1212
VALID
Hadron
Baryon
2J+1 = 2, 2S+1 = 0, 2L+1 = 0
Q = 0/3 = 0
Coloured = true

1214 N(1520)0
PID = 1214
VALID
Hadron
Baryon
2J+1 = 4, 2S+1 = 0, 2L+1 = 0
Q = 0/3 = 0
Coloured = true

1216 Delta(1905)0
PID = 1216
VALID
Hadron
Baryon
2J+1 = 6, 2S+1 = 0, 2L+1 = 0
Q = 0/3 = 0
Coloured = true

1218 N(2190)0
PID = 1218
VALID
Hadron
Baryon
2J+1 = 8, 2S+1 = 0, 2L+1 = 0
Q = 0/3 = 0
Coloured = true

2112 n0
PID = 2112
VALID
Hadron
Baryon
2J+1 = 2, 2S+1 = 0, 2L+1 = 0
Q = 0/3 = 0
Coloured = true

2114 Delta(1232)0
PID = 2114
VALID
Hadron
Baryon
2J+1 = 4, 2S+1 = 0, 2L+1 = 0
Q = 0/3 = 0
Coloured = true

2116 N(1675)0
PID = 2116
VALID
Hadron
Baryon
2J+1 = 6, 2S+1 = 0, 2L+1 = 0
Q = 0/3 = 0
Coloured = true

2118 Delta(1950)0
PID = 2118
VALID
Hadron
Baryon
2J+1 = 8, 2S+1 = 0, 2L+1 = 0
Q = 0/3 = 0
Coloured = true

2122 Delta(1620)+
PID = 2122
VALID
Hadron
Baryon
2J+1 = 2, 2S+1 = 0, 2L+1 = 0
Q = 3/3 = 1
Coloured = true

2124 N(1520)+
PID = 2124
VALID
Hadron
Baryon
2J+1 = 4, 2S+1 = 0, 2L+1 = 0
Q = 3/3 = 1
Coloured = true

2126 Delta(1905)+
PID = 2126
VALID
Hadron
Baryon
2J+1 = 6, 2S+1 = 0, 2L+1 = 0
Q = 3/3 = 1
Coloured = true

2128 N(2190)+
PID = 2128
VALID
Hadron
Baryon
2J+1 = 8, 2S+1 = 0, 2L+1 = 0
Q = 3/3 = 1
Coloured = true

2212 p+
PID = 2212
VALID
Nucleus
Hadron
Baryon
2J+1 = 2, 2S+1 = 0, 2L+1 = 0
Q = 3/3 = 1
Coloured = true

2214 Delta(1232)+
PID = 2214
VALID
Hadron
Baryon
2J+1 = 4, 2S+1 = 0, 2L+1 = 0
Q = 3/3 = 1
Coloured = true

2216 N(1675)+
PID = 2216
VALID
Hadron
Baryon
2J+1 = 6, 2S+1 = 0, 2L+1 = 0
Q = 3/3 = 1
Coloured = true

2218 Delta(1950)+
PID = 2218
VALID
Hadron
Baryon
2J+1 = 8, 2S+1 = 0, 2L+1 = 0
Q = 3/3 = 1
Coloured = true

2222 Delta(1620)++
PID = 2222
VALID
Hadron
Baryon
2J+1 = 2, 2S+1 = 0, 2L+1 = 0
Q = 6/3 = 2
Coloured = true

2224 Delta(1232)++
PID = 2224
VALID
Hadron
Baryon
2J+1 = 4, 2S+1 = 0, 2L+1 = 0
Q = 6/3 = 2
Coloured = true

2226 Delta(1905)++
PID = 2226
VALID
Hadron
Baryon
2J+1 = 6, 2S+1 = 0, 2L+1 = 0
Q = 6/3 = 2
Coloured = true

2228 Delta(1950)++
PID = 2228
VALID
Hadron
Baryon
2J+1 = 8, 2S+1 = 0, 2L+1 = 0
Q = 6/3 = 2
Coloured = true

3112 Sigma-
PID = 3112
VALID
Hadron
Baryon
2J+1 = 2, 2S+1 = 0, 2L+1 = 0
Q = -3/3 = -1
Coloured = true

3114 Sigma(1385)-
PID = 3114
VALID
Hadron
Baryon
2J+1 = 4, 2S+1 = 0, 2L+1 = 0
Q = -3/3 = -1
Coloured = true

3116 Sigma(1775)-
PID = 3116
VALID
Hadron
Baryon
2J+1 = 6, 2S+1 = 0, 2L+1 = 0
Q = -3/3 = -1
Coloured = true

3118 Sigma(2030)-
PID = 3118
VALID
Hadron
Baryon
2J+1 = 8, 2S+1 = 0, 2L+1 = 0
Q = -3/3 = -1
Coloured = true

3122 Lambda0
PID = 3122
VALID
Hadron
Baryon
2J+1 = 2, 2S+1 = 0, 2L+1 = 0
Q = 0/3 = 0
Coloured = true

3124 Lambda(1520)0
PID = 3124
VALID
Hadron
Baryon
2J+1 = 4, 2S+1 = 0, 2L+1 = 0
Q = 0/3 = 0
Coloured = true

3126 Lambda(1820)0
PID = 3126
VALID
Hadron
Baryon
2J+1 = 6, 2S+1 = 0, 2L+1 = 0
Q = 0/3 = 0
Coloured = true

3128 Lambda(2100)0
PID = 3128
VALID
Hadron
Baryon
2J+1 = 8, 2S+1 = 0, 2L+1 = 0
Q = 0/3 = 0
Coloured = true

3212 Sigma0
PID = 3212
VALID
Hadron
Baryon
2J+1 = 2, 2S+1 = 0, 2L+1 = 0
Q = 0/3 = 0
Coloured = true

3214 Sigma(1385)0
PID = 3214
VALID
Hadron
Baryon
2J+1 = 4, 2S+1 = 0, 2L+1 = 0
Q = 0/3 = 0
Coloured = true

3216 Sigma(1775)0
PID = 3216
VALID
Hadron
Baryon
2J+1 = 6, 2S+1 = 0, 2L+1 = 0
Q = 0/3 = 0
Coloured = true

3218 Sigma(2030)0
PID = 3218
VALID
Hadron
Baryon
2J+1 = 8, 2S+1 = 0, 2L+1 = 0
Q = 0/3 = 0
Coloured = true

3222 Sigma+
PID = 3222
VALID
Hadron
Baryon
2J+1 = 2, 2S+1 = 0, 2L+1 = 0
Q = 3/3 = 1
Coloured = true

3224 Sigma(1385)+
PID = 3224
VALID
Hadron
Baryon
2J+1 = 4, 2S+1 = 0, 2L+1 = 0
Q = 3/3 = 1
Coloured = true

3226 Sigma(1775)+
PID = 3226
VALID
Hadron
Baryon
2J+1 = 6, 2S+1 = 0, 2L+1 = 0
Q = 3/3 = 1
Coloured = true

3228 Sigma(2030)+
PID = 3228
VALID
Hadron
Baryon
2J+1 = 8, 2S+1 = 0, 2L+1 = 0
Q = 3/3 = 1
Coloured = true

3312 Xi-
PID = 3312
VALID
Hadron
Baryon
2J+1 = 2, 2S+1 = 0, 2L+1 = 0
Q = -3/3 = -1
Coloured = true

3314 Xi(1530)-
PID = 3314
VALID
Hadron
Baryon
2J+1 = 4, 2S+1 = 0, 2L+1 = 0
Q = -3/3 = -1
Coloured = true

3322 Xi0
PID = 3322
VALID
Hadron
Baryon
2J+1 = 2, 2S+1 = 0, 2L+1 = 0
Q = 0/3 = 0
Coloured = true

3324 Xi(1530)0
PID = 3324
VALID
Hadron
Baryon
2J+1 = 4, 2S+1 = 0, 2L+1 = 0
Q = 0/3 = 0
Coloured = true

3334 Omega-
PID = 3334
VALID
Hadron
Baryon
2J+1 = 4, 2S+1 = 0, 2L+1 = 0
Q = -3/3 = -1
Coloured = true

4112 Sigma(c)(2455)0
PID = 4112
VALID
Hadron
Baryon
Has charm
2J+1 = 2, 2S+1 = 0, 2L+1 = 0
Q = 0/3 = 0
Coloured = true

4114 Sigma(c)(2520)0
PID = 4114
VALID
Hadron
Baryon
Has charm
2J+1 = 4, 2S+1 = 0, 2L+1 = 0
Q = 0/3 = 0
Coloured = true

4122 Lambda(c)+
PID = 4122
VALID
Hadron
Baryon
Has charm
2J+1 = 2, 2S+1 = 0, 2L+1 = 0
Q = 3/3 = 1
Coloured = true

4132 Xi(c)0
PID = 4132
VALID
Hadron
Baryon
Has charm
2J+1 = 2, 2S+1 = 0, 2L+1 = 0
Q = 0/3 = 0
Coloured = true

4212 Sigma(c)(2455)+
PID = 4212
VALID
Hadron
Baryon
Has charm
2J+1 = 2, 2S+1 = 0, 2L+1 = 0
Q = 3/3 = 1
Coloured = true

4214 Sigma(c)(2520)+
PID = 4214
VALID
Hadron
Baryon
Has charm
2J+1 = 4, 2S+1 = 0, 2L+1 = 0
Q = 3/3 = 1
Coloured = true

4222 Sigma(c)(2455)++
PID = 4222
VALID
Hadron
Baryon
Has charm
2J+1 = 2, 2S+1 = 0, 2L+1 = 0
Q = 6/3 = 2
Coloured = true

4224 Sigma(c)(2520)++
PID = 4224
VALID
Hadron
Baryon
Has charm
2J+1 = 4, 2S+1 = 0, 2L+1 = 0
Q = 6/3 = 2
Coloured = true

4232 Xi(c)+
PID = 4232
VALID
Hadron
Baryon
Has charm
2J+1 = 2, 2S+1 = 0, 2L+1 = 0
Q = 3/3 = 1
Coloured = true

4312 Xi(c)'0
PID = 4312
VALID
Hadron
Baryon
Has charm
2J+1 = 2, 2S+1 = 0, 2L+1 = 0
Q = 0/3 = 0
Coloured = true

4314 Xi(c)(2645)0
PID = 4314
VALID
Hadron
Baryon
Has charm
2J+1 = 4, 2S+1 = 0, 2L+1 = 0
Q = 0/3 = 0
Coloured = true

4322 Xi(c)'+
PID = 4322
VALID
Hadron
Baryon
Has charm
2J+1 = 2, 2S+1 = 0, 2L+1 = 0
Q = 3/3 = 1
Coloured = true

4324 Xi(c)(2645)+
PID = 4324
VALID
Hadron
Baryon
Has charm
2J+1 = 4, 2S+1 = 0, 2L+1 = 0
Q = 3/3 = 1
Coloured = true

4332 Omega(c)0
PID = 4332
VALID
Hadron
Baryon
Has charm
2J+1 = 2, 2S+1 = 0, 2L+1 = 0
Q = 0/3 = 0
Coloured = true

4334 Omega(c)(2770)0
PID = 4334
VALID
Hadron
Baryon
Has charm
2J+1 = 4, 2S+1 = 0, 2L+1 = 0
Q = 0/3 = 0
Coloured = true

5112 Sigma(b)-
PID = 5112
VALID
Hadron
Baryon
Has bottom
2J+1 = 2, 2S+1 = 0, 2L+1 = 0
Q = -3/3 = -1
Coloured = true

5114 Sigma(b)*-
PID = 5114
VALID
Hadron
Baryon
Has bottom
2J+1 = 4, 2S+1 = 0, 2L+1 = 0
Q = -3/3 = -1
Coloured = true

5122 Lambda(b)0
PID = 5122
VALID
Hadron
Baryon
Has bottom
2J+1 = 2, 2S+1 = 0, 2L+1 = 0
Q = 0/3 = 0
Coloured = true

5132 Xi(b)-
PID = 5132
VALID
Hadron
Baryon
Has bottom
2J+1 = 2, 2S+1 = 0, 2L+1 = 0
Q = -3/3 = -1
Coloured = true

5222 Sigma(b)+
PID = 5222
VALID
Hadron
Baryon
Has bottom
2J+1 = 2, 2S+1 = 0, 2L+1 = 0
Q = 3/3 = 1
Coloured = true

5224 Sigma(b)*+
PID = 5224
VALID
Hadron
Baryon
Has bottom
2J+1 = 4, 2S+1 = 0, 2L+1 = 0
Q = 3/3 = 1
Coloured = true

5232 Xi(b)0
PID = 5232
VALID
Hadron
Baryon
Has bottom
2J+1 = 2, 2S+1 = 0, 2L+1 = 0
Q = 0/3 = 0
Coloured = true

5332 Omega(b)-
PID = 5332
VALID
Hadron
Baryon
Has bottom
2J+1 = 2, 2S+1 = 0, 2L+1 = 0
Q = -3/3 = -1
Coloured = true

10111 a(0)(1450)0
PID = 10111
VALID
Hadron
Meson
2J+1 = 1, 2S+1 = 1, 2L+1 = 1
Q = 0/3 = 0
Coloured = true

10113 b(1)(1235)0
PID = 10113
VALID
Hadron
Meson
2J+1 = 3, 2S+1 = 0, 2L+1 = 1
Q = 0/3 = 0
Coloured = true

10115 pi(2)(1670)0
PID = 10115
VALID
Hadron
Meson
2J+1 = 5, 2S+1 = 0, 2L+1 = 2
Q = 0/3 = 0
Coloured = true

10211 a(0)(1450)+
PID = 10211
VALID
Hadron
Meson
2J+1 = 1, 2S+1 = 1, 2L+1 = 1
Q = 3/3 = 1
Coloured = true

10213 b(1)(1235)+
PID = 10213
VALID
Hadron
Meson
2J+1 = 3, 2S+1 = 0, 2L+1 = 1
Q = 3/3 = 1
Coloured = true

10215 pi(2)(1670)+
PID = 10215
VALID
Hadron
Meson
2J+1 = 5, 2S+1 = 0, 2L+1 = 2
Q = 3/3 = 1
Coloured = true

10223 h(1)(1170)0
PID = 10223
VALID
Hadron
Meson
2J+1 = 3, 2S+1 = 0, 2L+1 = 1
Q = 0/3 = 0
Coloured = true

10225 eta(2)(1645)0
PID = 10225
VALID
Hadron
Meson
2J+1 = 5, 2S+1 = 0, 2L+1 = 2
Q = 0/3 = 0
Coloured = true

10311 K(0)*(1430)0
PID = 10311
VALID
Hadron
Meson
2J+1 = 1, 2S+1 = 1, 2L+1 = 1
Q = 0/3 = 0
Coloured = true

10313 K(1)(1270)0
PID = 10313
VALID
Hadron
Meson
2J+1 = 3, 2S+1 = 0, 2L+1 = 1
Q = 0/3 = 0
Coloured = true

10315 K(2)(1770)0
PID = 10315
VALID
Hadron
Meson
2J+1 = 5, 2S+1 = 0, 2L+1 = 2
Q = 0/3 = 0
Coloured = true

10321 K(0)*(1430)+
PID = 10321
VALID
Hadron
Meson
2J+1 = 1, 2S+1 = 1, 2L+1 = 1
Q = 3/3 = 1
Coloured = true

10323 K(1)(1270)+
PID = 10323
VALID
Hadron
Meson
2J+1 = 3, 2S+1 = 0, 2L+1 = 1
Q = 3/3 = 1
Coloured = true

10325 K(2)(1770)+
PID = 10325
VALID
Hadron
Meson
2J+1 = 5, 2S+1 = 0, 2L+1 = 2
Q = 3/3 = 1
Coloured = true

10331 f(0)(1710)0
PID = 10331
VALID
Hadron
Meson
2J+1 = 1, 2S+1 = 1, 2L+1 = 1
Q = 0/3 = 0
Coloured = true

10411 D(0)*(2400)+
PID = 10411
VALID
Hadron
Meson
Has charm
2J+1 = 1, 2S+1 = 1, 2L+1 = 1
Q = 3/3 = 1
Coloured = true

10421 D(0)*(2400)0
PID = 10421
VALID
Hadron
Meson
Has charm
2J+1 = 1, 2S+1 = 1, 2L+1 = 1
Q = 0/3 = 0
Coloured = true

10423 D(1)(2420)0
PID = 10423
VALID
Hadron
Meson
Has charm
2J+1 = 3, 2S+1 = 0, 2L+1 = 1
Q = 0/3 = 0
Coloured = true

10431 D(s0)*(2317)+
PID = 10431
VALID
Hadron
Meson
Has charm
2J+1 = 1, 2S+1 = 1, 2L+1 = 1
Q = 3/3 = 1
Coloured = true

10433 D(s1)(2536)+
PID = 10433
VALID
Hadron
Meson
Has charm
2J+1 = 3, 2S+1 = 0, 2L+1 = 1
Q = 3/3 = 1
Coloured = true

10441 chi(c0)(1P)0
PID = 10441
VALID
Hadron
Meson
Has charm
2J+1 = 1, 2S+1 = 1, 2L+1 = 1
Q = 0/3 = 0
Coloured = true

10443 h(c)(1P)0
PID = 10443
VALID
Hadron
Meson
Has charm
2J+1 = 3, 2S+1 = 0, 2L+1 = 1
Q = 0/3 = 0
Coloured = true

10551 chi(b0)(1P)0
PID = 10551
VALID
Hadron
Meson
Has bottom
2J+1 = 1, 2S+1 = 1, 2L+1 = 1
Q = 0/3 = 0
Coloured = true

10553 h(b)(1P)0
PID = 10553
VALID
Hadron
Meson
Has bottom
2J+1 = 3, 2S+1 = 0, 2L+1 = 1
Q = 0/3 = 0
Coloured = true

11114 Delta(1700)-
PID = 11114
VALID
Hadron
Baryon
2J+1 = 4, 2S+1 = 0, 2L+1 = 0
Q = -3/3 = -1
Coloured = true

11116 Delta(1930)-
PID = 11116
VALID
Hadron
Baryon
2J+1 = 6, 2S+1 = 0, 2L+1 = 0
Q = -3/3 = -1
Coloured = true

11216 Delta(1930)0
PID = 11216
VALID
Hadron
Baryon
2J+1 = 6, 2S+1 = 0, 2L+1 = 0
Q = 0/3 = 0
Coloured = true

12112 N(1440)0
PID = 12112
VALID
Hadron
Baryon
2J+1 = 2, 2S+1 = 0, 2L+1 = 0
Q = 0/3 = 0
Coloured = true

12114 Delta(1700)0
PID = 12114
VALID
Hadron
Baryon
2J+1 = 4, 2S+1 = 0, 2L+1 = 0
Q = 0/3 = 0
Coloured = true

12116 N(1680)0
PID = 12116
VALID
Hadron
Baryon
2J+1 = 6, 2S+1 = 0, 2L+1 = 0
Q = 0/3 = 0
Coloured = true

12126 Delta(1930)+
PID = 12126
VALID
Hadron
Baryon
2J+1 = 6, 2S+1 = 0, 2L+1 = 0
Q = 3/3 = 1
Coloured = true

12212 N(1440)+
PID = 12212
VALID
Hadron
Baryon
2J+1 = 2, 2S+1 = 0, 2L+1 = 0
Q = 3/3 = 1
Coloured = true

12214 Delta(1700)+
PID = 12214
VALID
Hadron
Baryon
2J+1 = 4, 2S+1 = 0, 2L+1 = 0
Q = 3/3 = 1
Coloured = true

12216 N(1680)+
PID = 12216
VALID
Hadron
Baryon
2J+1 = 6, 2S+1 = 0, 2L+1 = 0
Q = 3/3 = 1
Coloured = true

12224 Delta(1700)++
PID = 12224
VALID
Hadron
Baryon
2J+1 = 4, 2S+1 = 0, 2L+1 = 0
Q = 6/3 = 2
Coloured = true

12226 Delta(1930)++
PID = 12226
VALID
Hadron
Baryon
2J+1 = 6, 2S+1 = 0, 2L+1 = 0
Q = 6/3 = 2
Coloured = true

13112 Sigma(1660)-
PID = 13112
VALID
Hadron
Baryon
2J+1 = 2, 2S+1 = 0, 2L+1 = 0
Q = -3/3 = -1
Coloured = true

13114 Sigma(1670)-
PID = 13114
VALID
Hadron
Baryon
2J+1 = 4, 2S+1 = 0, 2L+1 = 0
Q = -3/3 = -1
Coloured = true

13116 Sigma(1915)-
PID = 13116
VALID
Hadron
Baryon
2J+1 = 6, 2S+1 = 0, 2L+1 = 0
Q = -3/3 = -1
Coloured = true

13122 Lambda(1405)0
PID = 13122
VALID
Hadron
Baryon
2J+1 = 2, 2S+1 = 0, 2L+1 = 0
Q = 0/3 = 0
Coloured = true

13124 Lambda(1690)0
PID = 13124
VALID
Hadron
Baryon
2J+1 = 4, 2S+1 = 0, 2L+1 = 0
Q = 0/3 = 0
Coloured = true

13126 Lambda(1830)0
PID = 13126
VALID
Hadron
Baryon
2J+1 = 6, 2S+1 = 0, 2L+1 = 0
Q = 0/3 = 0
Coloured = true

13212 Sigma(1660)0
PID = 13212
VALID
Hadron
Baryon
2J+1 = 2, 2S+1 = 0, 2L+1 = 0
Q = 0/3 = 0
Coloured = true

13214 Sigma(1670)0
PID = 13214
VALID
Hadron
Baryon
2J+1 = 4, 2S+1 = 0, 2L+1 = 0
Q = 0/3 = 0
Coloured = true

13216 Sigma(1915)0
PID = 13216
VALID
Hadron
Baryon
2J+1 = 6, 2S+1 = 0, 2L+1 = 0
Q = 0/3 = 0
Coloured = true

13222 Sigma(1660)+
PID = 13222
VALID
Hadron
Baryon
2J+1 = 2, 2S+1 = 0, 2L+1 = 0
Q = 3/3 = 1
Coloured = true

13224 Sigma(1670)+
PID = 13224
VALID
Hadron
Baryon
2J+1 = 4, 2S+1 = 0, 2L+1 = 0
Q = 3/3 = 1
Coloured = true

13226 Sigma(1915)+
PID = 13226
VALID
Hadron
Baryon
2J+1 = 6, 2S+1 = 0, 2L+1 = 0
Q = 3/3 = 1
Coloured = true

13314 Xi(1820)-
PID = 13314
VALID
Hadron
Baryon
2J+1 = 4, 2S+1 = 0, 2L+1 = 0
Q = -3/3 = -1
Coloured = true

13324 Xi(1820)0
PID = 13324
VALID
Hadron
Baryon
2J+1 = 4, 2S+1 = 0, 2L+1 = 0
Q = 0/3 = 0
Coloured = true

14122 Lambda(c)(2595)+
PID = 14122
VALID
Hadron
Baryon
Has charm
2J+1 = 2, 2S+1 = 0, 2L+1 = 0
Q = 3/3 = 1
Coloured = true

20113 a(1)(1260)0
PID = 20113
VALID
Hadron
Meson
2J+1 = 3, 2S+1 = 1, 2L+1 = 1
Q = 0/3 = 0
Coloured = true

20213 a(1)(1260)+
PID = 20213
VALID
Hadron
Meson
2J+1 = 3, 2S+1 = 1, 2L+1 = 1
Q = 3/3 = 1
Coloured = true

20223 f(1)(1285)0
PID = 20223
VALID
Hadron
Meson
2J+1 = 3, 2S+1 = 1, 2L+1 = 1
Q = 0/3 = 0
Coloured = true

20313 K(1)(1400)0
PID = 20313
VALID
Hadron
Meson
2J+1 = 3, 2S+1 = 1, 2L+1 = 1
Q = 0/3 = 0
Coloured = true

20315 K(2)(1820)0
PID = 20315
VALID
Hadron
Meson
2J+1 = 5, 2S+1 = 1, 2L+1 = 2
Q = 0/3 = 0
Coloured = true

20323 K(1)(1400)+
PID = 20323
VALID
Hadron
Meson
2J+1 = 3, 2S+1 = 1, 2L+1 = 1
Q = 3/3 = 1
Coloured = true

20325 K(2)(1820)+
PID = 20325
VALID
Hadron
Meson
2J+1 = 5, 2S+1 = 1, 2L+1 = 2
Q = 3/3 = 1
Coloured = true

20333 f(1)(1420)0
PID = 20333
VALID
Hadron
Meson
2J+1 = 3, 2S+1 = 1, 2L+1 = 1
Q = 0/3 = 0
Coloured = true

20433 D(s1)(2460)+
PID = 20433
VALID
Hadron
Meson
Has charm
2J+1 = 3, 2S+1 = 1, 2L+1 = 1
Q = 3/3 = 1
Coloured = true

20443 chi(c1)(1P)0
PID = 20443
VALID
Hadron
Meson
Has charm
2J+1 = 3, 2S+1 = 1, 2L+1 = 1
Q = 0/3 = 0
Coloured = true

20553 chi(b1)(1P)0
PID = 20553
VALID
Hadron
Meson
Has bottom
2J+1 = 3, 2S+1 = 1, 2L+1 = 1
Q = 0/3 = 0
Coloured = true

21112 Delta(1910)-
PID = 21112
VALID
Hadron
Baryon
2J+1 = 2, 2S+1 = 0, 2L+1 = 0
Q = -3/3 = -1
Coloured = true

21114 Delta(1920)-
PID = 21114
VALID
Hadron
Baryon
2J+1 = 4, 2S+1 = 0, 2L+1 = 0
Q = -3/3 = -1
Coloured = true

21212 Delta(1910)0
PID = 21212
VALID
Hadron
Baryon
2J+1 = 2, 2S+1 = 0, 2L+1 = 0
Q = 0/3 = 0
Coloured = true

21214 N(1700)0
PID = 21214
VALID
Hadron
Baryon
2J+1 = 4, 2S+1 = 0, 2L+1 = 0
Q = 0/3 = 0
Coloured = true

22112 N(1535)0
PID = 22112
VALID
Hadron
Baryon
2J+1 = 2, 2S+1 = 0, 2L+1 = 0
Q = 0/3 = 0
Coloured = true

22114 Delta(1920)0
PID = 22114
VALID
Hadron
Baryon
2J+1 = 4, 2S+1 = 0, 2L+1 = 0
Q = 0/3 = 0
Coloured = true

22122 Delta(1910)+
PID = 22122
VALID
Hadron
Baryon
2J+1 = 2, 2S+1 = 0, 2L+1 = 0
Q = 3/3 = 1
Coloured = true

22124 N(1700)+
PID = 22124
VALID
Hadron
Baryon
2J+1 = 4, 2S+1 = 0, 2L+1 = 0
Q = 3/3 = 1
Coloured = true

22212 N(1535)+
PID = 22212
VALID
Hadron
Baryon
2J+1 = 2, 2S+1 = 0, 2L+1 = 0
Q = 3/3 = 1
Coloured = true

22214 Delta(1920)+
PID = 22214
VALID
Hadron
Baryon
2J+1 = 4, 2S+1 = 0, 2L+1 = 0
Q = 3/3 = 1
Coloured = true

22222 Delta(1910)++
PID = 22222
VALID
Hadron
Baryon
2J+1 = 2, 2S+1 = 0, 2L+1 = 0
Q = 6/3 = 2
Coloured = true

22224 Delta(1920)++
PID = 22224
VALID
Hadron
Baryon
2J+1 = 4, 2S+1 = 0, 2L+1 = 0
Q = 6/3 = 2
Coloured = true

23112 Sigma(1750)-
PID = 23112
VALID
Hadron
Baryon
2J+1 = 2, 2S+1 = 0, 2L+1 = 0
Q = -3/3 = -1
Coloured = true

23114 Sigma(1940)-
PID = 23114
VALID
Hadron
Baryon
2J+1 = 4, 2S+1 = 0, 2L+1 = 0
Q = -3/3 = -1
Coloured = true

23122 Lambda(1600)0
PID = 23122
VALID
Hadron
Baryon
2J+1 = 2, 2S+1 = 0, 2L+1 = 0
Q = 0/3 = 0
Coloured = true

23124 Lambda(1890)0
PID = 23124
VALID
Hadron
Baryon
2J+1 = 4, 2S+1 = 0, 2L+1 = 0
Q = 0/3 = 0
Coloured = true

23126 Lambda(2110)0
PID = 23126
VALID
Hadron
Baryon
2J+1 = 6, 2S+1 = 0, 2L+1 = 0
Q = 0/3 = 0
Coloured = true

23212 Sigma(1750)0
PID = 23212
VALID
Hadron
Baryon
2J+1 = 2, 2S+1 = 0, 2L+1 = 0
Q = 0/3 = 0
Coloured = true

23214 Sigma(1940)0
PID = 23214
VALID
Hadron
Baryon
2J+1 = 4, 2S+1 = 0, 2L+1 = 0
Q = 0/3 = 0
Coloured = true

23222 Sigma(1750)+
PID = 23222
VALID
Hadron
Baryon
2J+1 = 2, 2S+1 = 0, 2L+1 = 0
Q = 3/3 = 1
Coloured = true

23224 Sigma(1940)+
PID = 23224
VALID
Hadron
Baryon
2J+1 = 4, 2S+1 = 0, 2L+1 = 0
Q = 3/3 = 1
Coloured = true

30113 rho(1700)0
PID = 30113
VALID
Hadron
Meson
2J+1 = 3, 2S+1 = 1, 2L+1 = 2
Q = 0/3 = 0
Coloured = true

30213 rho(1700)+
PID = 30213
VALID
Hadron
Meson
2J+1 = 3, 2S+1 = 1, 2L+1 = 2
Q = 3/3 = 1
Coloured = true

30221 f(0)(1370)0
PID = 30221
VALID
Hadron
Meson
2J+1 = 1, 2S+1 = 0, 2L+1 = 0
Q = 0/3 = 0
Coloured = true

30223 omega(1650)0
PID = 30223
VALID
Hadron
Meson
2J+1 = 3, 2S+1 = 1, 2L+1 = 2
Q = 0/3 = 0
Coloured = true

30313 K*(1680)0
PID = 30313
VALID
Hadron
Meson
2J+1 = 3, 2S+1 = 1, 2L+1 = 2
Q = 0/3 = 0
Coloured = true

30323 K*(1680)+
PID = 30323
VALID
Hadron
Meson
2J+1 = 3, 2S+1 = 1, 2L+1 = 2
Q = 3/3 = 1
Coloured = true

30443 psi(3770)0
PID = 30443
VALID
Hadron
Meson
Has charm
2J+1 = 3, 2S+1 = 1, 2L+1 = 2
Q = 0/3 = 0
Coloured = true

30553 Upsilon(1D)0
PID = 30553
VALID
Hadron
Meson
Has bottom
2J+1 = 3, 2S+1 = 1, 2L+1 = 2
Q = 0/3 = 0
Coloured = true

31114 Delta(1600)-
PID = 31114
VALID
Hadron
Baryon
2J+1 = 4, 2S+1 = 0, 2L+1 = 0
Q = -3/3 = -1
Coloured = true

31214 N(1720)0
PID = 31214
VALID
Hadron
Baryon
2J+1 = 4, 2S+1 = 0, 2L+1 = 0
Q = 0/3 = 0
Coloured = true

32112 N(1650)0
PID = 32112
VALID
Hadron
Baryon
2J+1 = 2, 2S+1 = 0, 2L+1 = 0
Q = 0/3 = 0
Coloured = true

32114 Delta(1600)0
PID = 32114
VALID
Hadron
Baryon
2J+1 = 4, 2S+1 = 0, 2L+1 = 0
Q = 0/3 = 0
Coloured = true

32124 N(1720)+
PID = 32124
VALID
Hadron
Baryon
2J+1 = 4, 2S+1 = 0, 2L+1 = 0
Q = 3/3 = 1
Coloured = true

32212 N(1650)+
PID = 32212
VALID
Hadron
Baryon
2J+1 = 2, 2S+1 = 0, 2L+1 = 0
Q = 3/3 = 1
Coloured = true

32214 Delta(1600)+
PID = 32214
VALID
Hadron
Baryon
2J+1 = 4, 2S+1 = 0, 2L+1 = 0
Q = 3/3 = 1
Coloured = true

32224 Delta(1600)++
PID = 32224
VALID
Hadron
Baryon
2J+1 = 4, 2S+1 = 0, 2L+1 = 0
Q = 6/3 = 2
Coloured = true

33122 Lambda(1670)0
PID = 33122
VALID
Hadron
Baryon
2J+1 = 2, 2S+1 = 0, 2L+1 = 0
Q = 0/3 = 0
Coloured = true

42112 N(1710)0
PID = 42112
VALID
Hadron
Baryon
2J+1 = 2, 2S+1 = 0, 2L+1 = 0
Q = 0/3 = 0
Coloured = true

42212 N(1710)+
PID = 42212
VALID
Hadron
Baryon
2J+1 = 2, 2S+1 = 0, 2L+1 = 0
Q = 3/3 = 1
Coloured = true

43122 Lambda(1800)0
PID = 43122
VALID
Hadron
Baryon
2J+1 = 2, 2S+1 = 0, 2L+1 = 0
Q = 0/3 = 0
Coloured = true

53122 Lambda(1810)0
PID = 53122
VALID
Hadron
Baryon
2J+1 = 2, 2S+1 = 0, 2L+1 = 0
Q = 0/3 = 0
Coloured = true

100111 pi(1300)0
PID = 100111
VALID
Hadron
Meson
2J+1 = 1, 2S+1 = 0, 2L+1 = 0
Q = 0/3 = 0
Coloured = true

100113 rho(1450)0
PID = 100113
VALID
Hadron
Meson
2J+1 = 3, 2S+1 = 1, 2L+1 = 0
Q = 0/3 = 0
Coloured = true

100211 pi(1300)+
PID = 100211
VALID
Hadron
Meson
2J+1 = 1, 2S+1 = 0, 2L+1 = 0
Q = 3/3 = 1
Coloured = true

100213 rho(1450)+
PID = 100213
VALID
Hadron
Meson
2J+1 = 3, 2S+1 = 1, 2L+1 = 0
Q = 3/3 = 1
Coloured = true

100221 eta(1295)0
PID = 100221
VALID
Hadron
Meson
2J+1 = 1, 2S+1 = 0, 2L+1 = 0
Q = 0/3 = 0
Coloured = true

100223 omega(1420)0
PID = 100223
VALID
Hadron
Meson
2J+1 = 3, 2S+1 = 1, 2L+1 = 0
Q = 0/3 = 0
Coloured = true

100313 K*(1410)0
PID = 100313
VALID
Hadron
Meson
2J+1 = 3, 2S+1 = 1, 2L+1 = 0
Q = 0/3 = 0
Coloured = true

100323 K*(1410)+
PID = 100323
VALID
Hadron
Meson
2J+1 = 3, 2S+1 = 1, 2L+1 = 0
Q = 3/3 = 1
Coloured = true

100331 eta(1475)0
PID = 100331
VALID
Hadron
Meson
2J+1 = 1, 2S+1 = 0, 2L+1 = 0
Q = 0/3 = 0
Coloured = true

100333 phi(1680)0
PID = 100333
VALID
Hadron
Meson
2J+1 = 3, 2S+1 = 1, 2L+1 = 0
Q = 0/3 = 0
Coloured = true

100441 eta(c)(2S)0
PID = 100441
VALID
Hadron
Meson
Has charm
2J+1 = 1, 2S+1 = 0, 2L+1 = 0
Q = 0/3 = 0
Coloured = true

100443 psi(2S)0
PID = 100443
VALID
Hadron
Meson
Has charm
2J+1 = 3, 2S+1 = 1, 2L+1 = 0
Q = 0/3 = 0
Coloured = true

100445 chi(c2)(2P)0
PID = 100445
VALID
Hadron
Meson
Has charm
2J+1 = 5, 2S+1 = 1, 2L+1 = 1
Q = 0/3 = 0
Coloured = true

100553 Upsilon(2S)0
PID = 100553
VALID
Hadron
Meson
Has bottom
2J+1 = 3, 2S+1 = 1, 2L+1 = 0
Q = 0/3 = 0
Coloured = true

100555 chi(b2)(2P)0
PID = 100555
VALID
Hadron
Meson
Has bottom
2J+1 = 5, 2S+1 = 1, 2L+1 = 1
Q = 0/3 = 0
Coloured = true

103316 Xi(1950)-
PID = 103316
VALID
Hadron
Baryon
2J+1 = 6, 2S+1 = 0, 2L+1 = 0
Q = -3/3 = -1
Coloured = true

103326 Xi(1950)0
PID = 103326
VALID
Hadron
Baryon
2J+1 = 6, 2S+1 = 0, 2L+1 = 0
Q = 0/3 = 0
Coloured = true

104122 Lambda(c)(2625)+
PID = 104122
VALID
Hadron
Baryon
Has charm
2J+1 = 2, 2S+1 = 0, 2L+1 = 0
Q = 3/3 = 1
Coloured = true

104312 Xi(c)(2815)0
PID = 104312
VALID
Hadron
Baryon
Has charm
2J+1 = 2, 2S+1 = 0, 2L+1 = 0
Q = 0/3 = 0
Coloured = true

104314 Xi(c)(2790)0
PID = 104314
VALID
Hadron
Baryon
Has charm
2J+1 = 4, 2S+1 = 0, 2L+1 = 0
Q = 0/3 = 0
Coloured = true

104322 Xi(c)(2815)+
PID = 104322
VALID
Hadron
Baryon
Has charm
2J+1 = 2, 2S+1 = 0, 2L+1 = 0
Q = 3/3 = 1
Coloured = true

104324 Xi(c)(2790)+
PID = 104324
VALID
Hadron
Baryon
Has charm
2J+1 = 4, 2S+1 = 0, 2L+1 = 0
Q = 3/3 = 1
Coloured = true

110551 chi(b0)(2P)0
PID = 110551
VALID
Hadron
Meson
Has bottom
2J+1 = 1, 2S+1 = 1, 2L+1 = 1
Q = 0/3 = 0
Coloured = true

120553 chi(b1)(2P)0
PID = 120553
VALID
Hadron
Meson
Has bottom
2J+1 = 3, 2S+1 = 1, 2L+1 = 1
Q = 0/3 = 0
Coloured = true

200553 Upsilon(3S)0
PID = 200553
VALID
Hadron
Meson
Has bottom
2J+1 = 3, 2S+1 = 1, 2L+1 = 0
Q = 0/3 = 0
Coloured = true

203312 Xi(1690)-
PID = 203312
VALID
Hadron
Baryon
2J+1 = 2, 2S+1 = 0, 2L+1 = 0
Q = -3/3 = -1
Coloured = true

203316 Xi(2030)-
PID = 203316
VALID
Hadron
Baryon
2J+1 = 6, 2S+1 = 0, 2L+1 = 0
Q = -3/3 = -1
Coloured = true

203322 Xi(1690)0
PID = 203322
VALID
Hadron
Baryon
2J+1 = 2, 2S+1 = 0, 2L+1 = 0
Q = 0/3 = 0
Coloured = true

203326 Xi(2030)0
PID = 203326
VALID
Hadron
Baryon
2J+1 = 6, 2S+1 = 0, 2L+1 = 0
Q = 0/3 = 0
Coloured = true

203338 Omega(2250)-
PID = 203338
VALID
Hadron
Baryon
2J+1 = 8, 2S+1 = 0, 2L+1 = 0
Q = -3/3 = -1
Coloured = true

204126 Lambda(c)(2880)+
PID = 204126
VALID
Hadron
Baryon
Has charm
2J+1 = 6, 2S+1 = 0, 2L+1 = 0
Q = 3/3 = 1
Coloured = true

300553 Upsilon(4S)0
PID = 300553
VALID
Hadron
Meson
Has bottom
2J+1 = 3, 2S+1 = 1, 2L+1 = 0
Q = 0/3 = 0
Coloured = true

9000111 a(0)(980)0
PID = 9000111
VALID
Hadron
Meson
2J+1 = 1, 2S+1 = 0, 2L+1 = 0
Q = 0/3 = 0
Coloured = true

9000113 pi(1)(1400)0
PID = 9000113
VALID
Hadron
Meson
2J+1 = 3, 2S+1 = 0, 2L+1 = 0
Q = 0/3 = 0
Coloured = true

9000211 a(0)(980)+
PID = 9000211
VALID
Hadron
Meson
2J+1 = 1, 2S+1 = 0, 2L+1 = 0
Q = 3/3 = 1
Coloured = true

9000213 pi(1)(1400)+
PID = 9000213
VALID
Hadron
Meson
2J+1 = 3, 2S+1 = 0, 2L+1 = 0
Q = 3/3 = 1
Coloured = true

9000221 f(0)(500)0
PID = 9000221
VALID
Hadron
Meson
2J+1 = 1, 2S+1 = 0, 2L+1 = 0
Q = 0/3 = 0
Coloured = true

9000443 psi(4040)0
PID = 9000443
VALID
Hadron
Meson
Has charm
2J+1 = 3, 2S+1 = 0, 2L+1 = 0
Q = 0/3 = 0
Coloured = true

9000553 Upsilon(10860)0
PID = 9000553
VALID
Hadron
Meson
Has bottom
2J+1 = 3, 2S+1 = 0, 2L+1 = 0
Q = 0/3 = 0
Coloured = true

9010111 pi(1800)0
PID = 9010111
VALID
Hadron
Meson
2J+1 = 1, 2S+1 = 0, 2L+1 = 0
Q = 0/3 = 0
Coloured = true

9010113 pi(1)(1600)0
PID = 9010113
VALID
Hadron
Meson
2J+1 = 3, 2S+1 = 0, 2L+1 = 0
Q = 0/3 = 0
Coloured = true

9010211 pi(1800)+
PID = 9010211
VALID
Hadron
Meson
2J+1 = 1, 2S+1 = 0, 2L+1 = 0
Q = 3/3 = 1
Coloured = true

9010213 pi(1)(1600)+
PID = 9010213
VALID
Hadron
Meson
2J+1 = 3, 2S+1 = 0, 2L+1 = 0
Q = 3/3 = 1
Coloured = true

9010221 f(0)(980)0
PID = 9010221
VALID
Hadron
Meson
2J+1 = 1, 2S+1 = 0, 2L+1 = 0
Q = 0/3 = 0
Coloured = true

9010443 psi(4160)0
PID = 9010443
VALID
Hadron
Meson
Has charm
2J+1 = 3, 2S+1 = 0, 2L+1 = 0
Q = 0/3 = 0
Coloured = true

9010553 Upsilon(11020)0
PID = 9010553
VALID
Hadron
Meson
Has bottom
2J+1 = 3, 2S+1 = 0, 2L+1 = 0
Q = 0/3 = 0
Coloured = true

9020221 eta(1405)0
PID = 9020221
VALID
Hadron
Meson
2J+1 = 1, 2S+1 = 0, 2L+1 = 0
Q = 0/3 = 0
Coloured = true

9020443 psi(4415)0
PID = 9020443
VALID
Hadron
Meson
Has charm
2J+1 = 3, 2S+1 = 0, 2L+1 = 0
Q = 0/3 = 0
Coloured = true

9030221 f(0)(1500)0
PID = 9030221
VALID
Hadron
Meson
2J+1 = 1, 2S+1 = 0, 2L+1 = 0
Q = 0/3 = 0
Coloured = true

9050225 f(2)(1950)0
PID = 9050225
VALID
Hadron
Meson
2J+1 = 5, 2S+1 = 0, 2L+1 = 0
Q = 0/3 = 0
Coloured = true

9060225 f(2)(2010)0
PID = 9060225
VALID
Hadron
Meson
2J+1 = 5, 2S+1 = 0, 2L+1 = 0
Q = 0/3 = 0
Coloured = true

9080225 f(2)(2300)0
PID = 9080225
VALID
Hadron
Meson
2J+1 = 5, 2S+1 = 0, 2L+1 = 0
Q = 0/3 = 0
Coloured = true

9090225 f(2)(2340)0
PID = 9090225
VALID
Hadron
Meson
2J+1 = 5, 2S+1 = 0, 2L+1 = 0
Q = 0/3 = 0
Coloured = true

